<svg width="11" height="11" viewBox="0 0 11 11" fill="none" xmlns="http://www.w3.org/2000/svg">
<path d="M10.5413 1.65713L9.8253 2.21699C8.84903 0.969043 7.33067 0.167969 5.62569 0.167969C2.68165 0.167969 0.298735 2.54834 0.294926 5.49365C0.291118 8.4415 2.67911 10.832 5.62569 10.832C7.92735 10.832 9.88877 9.37207 10.6353 7.32686C10.6543 7.27354 10.6264 7.21387 10.5731 7.19609L9.85323 6.94853C9.82813 6.93993 9.80066 6.94149 9.7767 6.95288C9.75274 6.96427 9.73418 6.98458 9.725 7.00947C9.70215 7.07295 9.67676 7.13643 9.6501 7.19863C9.43047 7.71914 9.11563 8.18633 8.71446 8.5875C8.31652 8.98618 7.84537 9.30431 7.32686 9.52441C6.78985 9.75166 6.21729 9.86719 5.62823 9.86719C5.0379 9.86719 4.46661 9.75166 3.92959 9.52441C3.41058 9.30524 2.93926 8.987 2.542 8.5875C2.14298 8.18961 1.8252 7.71789 1.60635 7.19863C1.37911 6.66035 1.26358 6.08906 1.26358 5.49873C1.26358 4.9084 1.37911 4.33711 1.60635 3.79883C1.82598 3.27832 2.14082 2.81113 2.542 2.40996C2.94317 2.00879 3.41036 1.69395 3.92959 1.47305C4.46661 1.2458 5.03916 1.13027 5.62823 1.13027C6.21856 1.13027 6.78985 1.2458 7.32686 1.47305C7.84588 1.69222 8.3172 2.01046 8.71446 2.40996C8.84014 2.53564 8.95821 2.66895 9.06739 2.80859L8.30313 3.40527C8.28801 3.41697 8.27649 3.4327 8.26992 3.45065C8.26334 3.4686 8.26196 3.48804 8.26593 3.50674C8.26991 3.52544 8.27909 3.54264 8.29241 3.55635C8.30572 3.57007 8.32264 3.57975 8.34122 3.58428L10.5705 4.13018C10.634 4.14541 10.6962 4.09717 10.6962 4.03242L10.7064 1.73584C10.7051 1.65205 10.6073 1.60508 10.5413 1.65713Z" fill="#222222"/>
</svg>
