<svg width="20" height="20" viewBox="0 0 20 20" fill="none" xmlns="http://www.w3.org/2000/svg">
<g clip-path="url(#clip0)">
<path d="M19.9794 12.9707C19.6492 11.111 18.4151 9.61777 16.7878 8.92518C17.51 8.31955 17.9712 7.4025 17.9712 6.37802C17.9712 4.55841 16.5168 3.078 14.7289 3.078C12.941 3.078 11.4865 4.55826 11.4865 6.37802C11.4865 7.40311 11.9483 8.32047 12.6712 8.92624C12.4015 9.04129 12.1401 9.17862 11.8904 9.33869C11.2613 9.74213 10.7242 10.2734 10.3102 10.8957C9.88895 10.6158 9.43591 10.383 8.95831 10.2043C9.98477 9.46228 10.6559 8.24219 10.6559 6.86539C10.6559 4.60907 8.85364 2.77344 6.63837 2.77344C4.4231 2.77344 2.62088 4.60907 2.62088 6.86539C2.62088 8.24219 3.29196 9.46228 4.31842 10.2043C2.13397 11.0216 0.458556 12.9651 0.0239856 15.412C-0.0562756 15.8644 0.0670155 16.3258 0.361968 16.678C0.654174 17.0267 1.0805 17.2266 1.53171 17.2266H11.745C12.1962 17.2266 12.6226 17.0267 12.9148 16.678C13.2099 16.3258 13.333 15.8644 13.2527 15.412C13.1992 15.1102 13.1266 14.8161 13.0367 14.531H18.6818C19.0703 14.531 19.4374 14.3588 19.6889 14.0588C19.9425 13.7563 20.0484 13.3595 19.9794 12.9707ZM12.6584 6.37802C12.6584 5.20447 13.5872 4.24988 14.7289 4.24988C15.8705 4.24988 16.7993 5.20447 16.7993 6.37802C16.7993 7.55143 15.8705 8.50602 14.7289 8.50602C13.5872 8.50602 12.6584 7.55143 12.6584 6.37802ZM3.79275 6.86539C3.79275 5.25528 5.0693 3.94531 6.63837 3.94531C8.20743 3.94531 9.48413 5.25528 9.48413 6.86539C9.48413 8.4755 8.20743 9.78547 6.63837 9.78547C5.0693 9.78547 3.79275 8.4755 3.79275 6.86539ZM12.0166 15.9253C11.976 15.9737 11.8869 16.0547 11.745 16.0547H1.53171C1.3898 16.0547 1.30069 15.9737 1.2601 15.9253C1.21799 15.8749 1.15115 15.7678 1.17786 15.6168C1.65729 12.917 3.95373 10.9573 6.63837 10.9573C9.323 10.9573 11.6196 12.917 12.0989 15.6168C12.1257 15.7678 12.0589 15.8749 12.0166 15.9253ZM18.7908 13.3061C18.7741 13.326 18.738 13.3591 18.682 13.3591H12.5441C12.1975 12.7095 11.7522 12.1268 11.2299 11.6296C11.9931 10.4155 13.2976 9.67789 14.7289 9.67789C16.7429 9.67789 18.4656 11.1488 18.8256 13.1757C18.8369 13.2396 18.8086 13.2849 18.7908 13.3061Z" fill="#4FB3EC"/>
</g>
<defs>
<clipPath id="clip0">
<rect width="20" height="20" fill="white"/>
</clipPath>
</defs>
</svg>
