<svg width="14" height="8" viewBox="0 0 14 8" fill="none" xmlns="http://www.w3.org/2000/svg">
<path d="M13.9258 7.22006C13.9088 7.18352 13.893 7.15322 13.8783 7.12894C13.6354 6.69147 13.1713 6.15451 12.4861 5.5179L12.4716 5.50332L12.4644 5.49617L12.457 5.48884H12.4497C12.1387 5.1924 11.9418 4.99308 11.8593 4.89104C11.7085 4.69665 11.6747 4.49988 11.7571 4.30051C11.8154 4.14988 12.0342 3.83177 12.4132 3.34574C12.6125 3.08816 12.7703 2.88172 12.8869 2.72618C13.7277 1.60845 14.0922 0.894196 13.9803 0.583155L13.9369 0.510469C13.9077 0.466709 13.8324 0.426677 13.7111 0.390168C13.5894 0.353735 13.434 0.34771 13.2444 0.37199L11.1452 0.386491C11.1112 0.374441 11.0626 0.375564 10.9993 0.390168C10.9362 0.404771 10.9045 0.412099 10.9045 0.412099L10.868 0.430353L10.839 0.452284C10.8147 0.466785 10.788 0.492291 10.7588 0.528749C10.7298 0.565079 10.7055 0.607715 10.6861 0.6563C10.4575 1.2443 10.1977 1.79099 9.90604 2.29635C9.72623 2.59769 9.56109 2.85884 9.41028 3.07996C9.25968 3.30101 9.13333 3.46387 9.03136 3.56826C8.92923 3.67276 8.83707 3.75648 8.7543 3.81972C8.67165 3.88298 8.60857 3.90971 8.56488 3.89993C8.5211 3.89016 8.47987 3.88045 8.44083 3.87075C8.37284 3.82699 8.31815 3.76748 8.27692 3.69216C8.23551 3.61685 8.20763 3.52205 8.19305 3.40785C8.17855 3.29358 8.16997 3.19528 8.16752 3.11264C8.16525 3.0301 8.1663 2.91335 8.17122 2.76272C8.17628 2.61201 8.17855 2.51004 8.17855 2.45658C8.17855 2.27189 8.18215 2.07145 8.18938 1.8552C8.19673 1.63895 8.20268 1.46762 8.20766 1.34139C8.21261 1.21504 8.21491 1.08136 8.21491 0.940432C8.21491 0.799503 8.20633 0.68898 8.18938 0.608762C8.17263 0.528646 8.14692 0.45088 8.11304 0.375487C8.07896 0.300172 8.02907 0.241911 7.96361 0.200551C7.89802 0.159242 7.81647 0.12646 7.71943 0.102104C7.46185 0.0438172 7.13386 0.0122867 6.7353 0.00738481C5.83148 -0.00231688 5.25073 0.0560464 4.99318 0.182398C4.89113 0.235783 4.79879 0.308724 4.71622 0.400993C4.62873 0.507941 4.61652 0.566305 4.67969 0.575904C4.9713 0.619587 5.17774 0.724085 5.29924 0.889294L5.34303 0.976839C5.37709 1.04 5.41109 1.15183 5.44513 1.31216C5.47911 1.47249 5.50104 1.64986 5.51069 1.84414C5.53494 2.19895 5.53494 2.50266 5.51069 2.75531C5.48636 3.00807 5.46338 3.20483 5.44145 3.34576C5.41952 3.48669 5.38674 3.60089 5.34303 3.68833C5.29924 3.7758 5.27011 3.82926 5.25551 3.84867C5.24093 3.86807 5.22878 3.8803 5.21913 3.8851C5.15596 3.9093 5.09027 3.92163 5.02228 3.92163C4.95419 3.92163 4.87163 3.88758 4.77446 3.81951C4.67731 3.75145 4.57649 3.65795 4.47199 3.53888C4.3675 3.41978 4.24965 3.25334 4.11839 3.03955C3.98724 2.82575 3.85116 2.57307 3.71023 2.28151L3.59363 2.07007C3.52074 1.93404 3.42117 1.73597 3.29482 1.47604C3.16839 1.21601 3.05665 0.964482 2.9595 0.721506C2.92067 0.619459 2.86233 0.54177 2.78459 0.488308L2.74811 0.466377C2.72385 0.446974 2.68492 0.42637 2.63151 0.404414C2.57802 0.382483 2.52221 0.366756 2.46385 0.35708L0.4666 0.371581C0.262507 0.371581 0.124028 0.417817 0.0511126 0.510162L0.0219309 0.553845C0.00735286 0.578176 0 0.617034 0 0.670521C0 0.723982 0.0145781 0.789596 0.0437597 0.867287C0.335321 1.55253 0.652388 2.2134 0.99496 2.84998C1.33753 3.48657 1.63522 3.99935 1.88785 4.38788C2.14053 4.77669 2.39808 5.14364 2.66051 5.48856C2.92294 5.83361 3.09665 6.05473 3.18164 6.15188C3.26674 6.2492 3.33358 6.32196 3.38216 6.37055L3.56443 6.54546C3.68105 6.66211 3.85231 6.80181 4.07829 6.96457C4.30431 7.12743 4.55454 7.28776 4.82909 7.44583C5.1037 7.60363 5.42317 7.73241 5.78767 7.832C6.15212 7.9317 6.50685 7.97171 6.8519 7.95241H7.69017C7.86018 7.93773 7.98899 7.88427 8.07653 7.792L8.10553 7.75546C8.12504 7.72646 8.14329 7.6814 8.16014 7.62076C8.1772 7.56003 8.18567 7.49311 8.18567 7.42032C8.1807 7.2114 8.1966 7.02311 8.23296 6.85548C8.26929 6.68789 8.3107 6.56154 8.35701 6.47645C8.4033 6.39143 8.45554 6.31969 8.51367 6.26153C8.57193 6.20324 8.61344 6.16793 8.6378 6.15578C8.662 6.14355 8.68133 6.13525 8.69591 6.13028C8.81253 6.09142 8.94979 6.12905 9.10787 6.24335C9.26583 6.35755 9.41399 6.49856 9.55257 6.66614C9.69107 6.83388 9.85748 7.02207 10.0518 7.23098C10.2463 7.43998 10.4163 7.59533 10.5621 7.69753L10.7078 7.785C10.8051 7.84337 10.9315 7.89683 11.087 7.94541C11.2422 7.99397 11.3783 8.00612 11.4951 7.98184L13.361 7.95274C13.5456 7.95274 13.6892 7.92218 13.7911 7.86154C13.8932 7.80081 13.9538 7.73389 13.9733 7.6611C13.9929 7.58824 13.9939 7.50557 13.977 7.41315C13.9598 7.32095 13.9427 7.25649 13.9258 7.22006Z" fill="white"/>
</svg>
