<svg width="20" height="20" viewBox="0 0 20 20" fill="none" xmlns="http://www.w3.org/2000/svg">
<path d="M19.9484 18.7052C19.9484 19.3912 19.3908 19.9488 18.7048 19.9488H1.29438C0.608477 19.9488 0.0507812 19.3912 0.0507812 18.7052V1.29474C0.0507812 0.608804 0.608477 0.0511475 1.29438 0.0511475H18.7048C19.3908 0.0511475 19.9484 0.608804 19.9484 1.29474V18.7052Z" fill="#ED1F24"/>
<path d="M12.2453 4.11591H10.4622C8.71007 4.11591 7.22421 5.44958 7.22421 8.03884C7.22421 9.59216 7.94375 10.7374 9.22617 11.3024L6.83312 15.6332C6.7548 15.7746 6.83312 15.8842 6.9582 15.8842H8.06886C8.16261 15.8842 8.2255 15.8529 8.25675 15.7746L10.4309 11.5221H11.213V15.7746C11.213 15.8213 11.2598 15.8842 11.3223 15.8842H12.2923C12.3861 15.8842 12.4175 15.8372 12.4175 15.759V4.27282C12.4174 4.16298 12.3548 4.11591 12.2453 4.11591ZM11.213 10.518H10.556C9.52371 10.518 8.52269 9.76485 8.52269 7.88196C8.52269 5.92024 9.46113 5.12005 10.4152 5.12005H11.213V10.518H11.213Z" fill="white"/>
</svg>
